{
 "node" : {
    "ip" : "127.0.0.1",
    "port_srv" : "3030",
    "port_con" : "3031",
    "pub" : "server.pub",
    "lite_pub" : "liteserver.pub",
    "client" : "client",
    "wal_addr" : "3515a3728c77594f1be4a1c9d7d5096cf6be98014b1df84d350b8380e7925d31",
    "wal_name" : "msig.keys.json",
    "max_factor" : "2.7",
    "net_name" : "net.ton.dev",
    "comment" : "TONlabs dev node"
}